Morphological predictability - HS: 1.1
…
Code

# Might be able to balance groups by removing intermediate 
# heritage with high use
prof_use %>% 
  filter(Type == "intermediate_heritage") %>% 
  arrange(desc(use_p))

# A tibble: 24 × 11
   Type     id     prof   use group prof_p use_p prof_perc use_perc prof_z use_z
   <chr>    <chr> <dbl> <dbl> <chr>  <dbl> <dbl>     <dbl>    <dbl>  <dbl> <dbl>
 1 interme… ihs24    27    75 hl     0.482  0.75      48.2       75 -1.76  1.98 
 2 interme… ihs13    30    70 hl     0.536  0.7       53.6       70 -1.32  1.69 
 3 interme… ihs18    31    70 hl     0.554  0.7       55.4       70 -1.18  1.69 
 4 interme… ihs06    28    60 hl     0.5    0.6       50         60 -1.61  1.11 
 5 interme… ihs27    31    60 hl     0.554  0.6       55.4       60 -1.18  1.11 
 6 interme… ihs02    37    50 hl     0.661  0.5       66.1       50 -0.307 0.539
 7 interme… ihs04    33    50 hl     0.589  0.5       58.9       50 -0.888 0.539
 8 interme… ihs09    33    50 hl     0.589  0.5       58.9       50 -0.888 0.539
 9 interme… ihs10    37    50 hl     0.661  0.5       66.1       50 -0.307 0.539
10 interme… ihs11    36    50 hl     0.643  0.5       64.3       50 -0.452 0.539
# … with 14 more rows
…
Code

# They are closer now. We can also take out a few of the lower L2 use
prof_use %>% 
  filter(Type == "intermediate_l2") %>% 
  arrange(use_p)

# A tibble: 27 × 11
   Type    id     prof   use group prof_p use_p prof_perc use_perc  prof_z use_z
   <chr>   <chr> <dbl> <dbl> <chr>  <dbl> <dbl>     <dbl>    <dbl>   <dbl> <dbl>
 1 interm… ies09    32    15 l2     0.571  0.15      57.1       15 -1.03   -1.48
 2 interm… ies26    39    15 l2     0.696  0.15      69.6       15 -0.0160 -1.48
 3 interm… ies29    26    15 l2     0.464  0.15      46.4       15 -1.90   -1.48
 4 interm… ies05    35    20 l2     0.625  0.2       62.5       20 -0.597  -1.19
 5 interm… ies06    37    20 l2     0.661  0.2       66.1       20 -0.307  -1.19
 6 interm… ies07    35    20 l2     0.625  0.2       62.5       20 -0.597  -1.19
 7 interm… ies12    26    20 l2     0.464  0.2       46.4       20 -1.90   -1.19
 8 interm… ies13    39    20 l2     0.696  0.2       69.6       20 -0.0160 -1.19
 9 interm… ies20    35    20 l2     0.625  0.2       62.5       20 -0.597  -1.19
10 interm… ies21    29    20 l2     0.518  0.2       51.8       20 -1.47   -1.19
# … with 17 more rows
…
# A tibble: 4 × 5
  Type                  prof_p_mean prof_p_sd use_p_mean use_p_sd
  <chr>                       <dbl>     <dbl>      <dbl>    <dbl>
1 advanced_heritage           0.776    0.0450      0.474    0.169
2 advanced_l2                 0.823    0.0775      0.437    0.134
3 intermediate_heritage       0.622    0.0566      0.379    0.155
4 intermediate_l2             0.592    0.0753      0.327    0.167

Code

prof_use %>% 
  filter(Type == "advanced_heritage") %>% 
  arrange(desc(use_p))

# A tibble: 23 × 11
   Type     id     prof   use group prof_p use_p prof_perc use_perc prof_z use_z
   <chr>    <chr> <dbl> <dbl> <chr>  <dbl> <dbl>     <dbl>    <dbl>  <dbl> <dbl>
 1 advance… ahs12    43    80 hl     0.768  0.8       76.8       80  0.565 2.27 
 2 advance… ahs03    47    75 hl     0.839  0.75      83.9       75  1.15  1.98 
 3 advance… ahs15    45    70 hl     0.804  0.7       80.4       70  0.856 1.69 
 4 advance… ahs23    45    70 hl     0.804  0.7       80.4       70  0.856 1.69 
 5 advance… ahs04    46    60 hl     0.821  0.6       82.1       60  1.00  1.11 
 6 advance… ahs11    44    60 hl     0.786  0.6       78.6       60  0.710 1.11 
 7 advance… ahs16    44    60 hl     0.786  0.6       78.6       60  0.710 1.11 
 8 advance… ahs02    43    50 hl     0.768  0.5       76.8       50  0.565 0.539
 9 advance… ahs06    47    50 hl     0.839  0.5       83.9       50  1.15  0.539
10 advance… ahs10    44    50 hl     0.786  0.5       78.6       50  0.710 0.539
# … with 13 more rows
…
