Morphological predictability - HS: 1.2
…
prof_use_final <- prof_use %>% 
  filter(!(id %in% remove)) %>% 
  mutate(prof_z = (prof_perc - mean(prof_perc)) / sd(prof_perc), 
    use_z = (use_perc - mean(use_perc)) / sd(use_perc))

# A tibble: 4 × 5
  Type                  prof_p_mean prof_p_sd use_p_mean use_p_sd
  <chr>                       <dbl>     <dbl>      <dbl>    <dbl>
1 advanced_heritage           0.776    0.0450      0.474    0.169
2 advanced_l2                 0.823    0.0775      0.437    0.134
3 intermediate_heritage       0.609    0.0633      0.421    0.185
4 intermediate_l2             0.591    0.0780      0.307    0.167
# A tibble: 24 × 3
   id    prof_p use_p
   <chr>  <dbl> <dbl>
 1 ihs24  0.482  0.75
 2 ihs13  0.536  0.7 
 3 ihs18  0.554  0.7 
 4 ihs06  0.5    0.6 
 5 ihs27  0.554  0.6 
 6 ihs02  0.661  0.5 
 7 ihs04  0.589  0.5 
 8 ihs09  0.589  0.5 
 9 ihs10  0.661  0.5 
10 ihs11  0.643  0.5 
# … with 14 more rows
# A tibble: 4 × 5
  Type                  prof_p_mean prof_p_sd use_p_mean use_p_sd
  <chr>                       <dbl>     <dbl>      <dbl>    <dbl>
1 advanced_heritage           0.776    0.0450      0.474    0.169
2 advanced_l2                 0.823    0.0775      0.437    0.134
3 intermediate_heritage       0.622    0.0566      0.379    0.155
4 intermediate_l2             0.591    0.0780      0.307    0.167
# A tibble: 27 × 3
   id    prof_p use_p
   <chr>  <dbl> <dbl>
 1 ies09  0.571  0.15
 2 ies26  0.696  0.15
 3 ies29  0.464  0.15
 4 ies05  0.625  0.2 
 5 ies06  0.661  0.2 
 6 ies07  0.625  0.2 
 7 ies12  0.464  0.2 
 8 ies13  0.696  0.2 
 9 ies20  0.625  0.2 
10 ies21  0.518  0.2 
# … with 17 more rows
# A tibble: 4 × 5
  Type                  prof_p_mean prof_p_sd use_p_mean use_p_sd
  <chr>                       <dbl>     <dbl>      <dbl>    <dbl>
1 advanced_heritage           0.776    0.0450      0.474    0.169
2 advanced_l2                 0.823    0.0775      0.437    0.134
3 intermediate_heritage       0.622    0.0566      0.379    0.155
4 intermediate_l2             0.592    0.0753      0.327    0.167
# A tibble: 23 × 3
   id    prof_p use_p
   <chr>  <dbl> <dbl>
 1 ahs12  0.768  0.8 
 2 ahs03  0.839  0.75
 3 ahs15  0.804  0.7 
 4 ahs23  0.804  0.7 
 5 ahs04  0.821  0.6 
 6 ahs11  0.786  0.6 
 7 ahs16  0.786  0.6 
 8 ahs02  0.768  0.5 
 9 ahs06  0.839  0.5 
10 ahs10  0.786  0.5 
# … with 13 more rows
…
